interruptLeds/interruptLeds._LAnalizer-24.vcd
$timescale 1000ps $end

$var wire 1 # LED_C4_F $end
$var wire 1 $ LED_C5 $end
$var wire 1 % LED_B0 $end
$var wire 1 & LED_D7 $end

$enddefinitions $end

$dumpvars
0#
0$
1&
$end

#10648 1#
#5002648 0#
#9994585 1#
#14985960 1$
#14986398 0#
#19978273 0$
#19978898 1#
#24970648 0#
#29962585 1#
#34954648 0#
#39946585 1#
#44937960 1$
#44938398 0#
#49930335 0$
#49930960 1#
#51257915 0& 0$ 1#
